\relax 
\bibcite{light}{1}
\bibcite{light2}{2}
\bibcite{light3}{3}
\bibcite{coda}{4}
\bibcite{dtn}{5}
\bibcite{fta}{6}
\bibcite{fmea}{7}
\bibcite{dcase}{8}
\bibcite{dcase2}{9}
\bibcite{performance}{10}
\bibcite{50lx}{11}
\bibcite{rc}{12}
\bibcite{iris}{13}
\bibcite{napica}{14}
\newlabel{ipsj@firstpage}{{}{1}}
\@writefile{toc}{\contentsline {section}{\numberline {1}\hskip 1zw{はじめに}}{1}}
\@writefile{toc}{\contentsline {section}{\numberline {2}\hskip 1zw{関連研究}}{1}}
\@writefile{toc}{\contentsline {section}{\numberline {3}\hskip 1zw{}}{1}}
\@writefile{toc}{\contentsline {section}{\numberline {4}\hskip 1zw{実装}}{1}}
\@writefile{toc}{\contentsline {section}{\numberline {5}\hskip 1zw{評価}}{1}}
\@writefile{toc}{\contentsline {section}{\numberline {6}\hskip 1zw{結論}}{1}}
\bibcite{azuma}{15}
\newlabel{ipsj@lastpage}{{}{2}}
